/home/valter/Documentos/GitHub/testes-junit/src/test/java/com/testes/automatizados/unitario/Controller/ClienteControllerTest.java
/home/valter/Documentos/GitHub/testes-junit/src/test/java/com/testes/automatizados/unitario/Service/ClienteServiceTest.java
/home/valter/Documentos/GitHub/testes-junit/src/test/java/com/testes/automatizados/integracao/ClienteControllerTest.java
